LSP/Morse Beacon/simulation/qsim/Morse.msim.vcd
$comment
	File created using the following command:
		vcd file Morse.msim.vcd -direction
$end
$date
	Tue Nov 01 18:10:11 2022
$end
$version
	ModelSim Version 10.1d
$end
$timescale
	1ps
$end
$scope module BeaconAE_vlg_vec_tst $end
$var reg 1 ! X0 $end
$var reg 1 " X1 $end
$var reg 1 # X2 $end
$var reg 1 $ X3 $end
$var reg 1 % X4 $end
$var reg 1 & X5 $end
$var wire 1 ' STOP $end
$var wire 1 ( Y $end
$var wire 1 ) sampler $end
$scope module i1 $end
$var wire 1 * gnd $end
$var wire 1 + vcc $end
$var wire 1 , unknown $end
$var tri1 1 - devclrn $end
$var tri1 1 . devpor $end
$var tri1 1 / devoe $end
$var wire 1 0 X4~input_o $end
$var wire 1 1 X3~input_o $end
$var wire 1 2 STOP~output_o $end
$var wire 1 3 Y~output_o $end
$var wire 1 4 X5~input_o $end
$var wire 1 5 X0~input_o $end
$var wire 1 6 X1~input_o $end
$var wire 1 7 X2~input_o $end
$var wire 1 8 STOP~0_combout $end
$var wire 1 9 STOP~1_combout $end
$var wire 1 : Y~1_combout $end
$var wire 1 ; Y~0_combout $end
$var wire 1 < Y~2_combout $end
$var wire 1 = Y~3_combout $end
$var wire 1 > Y~4_combout $end
$upscope $end
$upscope $end
$enddefinitions $end
#0
$dumpvars
0!
0"
0#
0$
0%
0&
0'
0(
x)
0*
1+
x,
1-
1.
1/
00
01
02
03
04
05
06
07
08
09
0:
0;
0<
0=
0>
$end
#10000
1!
15
0)
#20000
1"
0!
16
05
1)
#30000
1!
15
0)
#40000
1#
0"
0!
17
06
05
1)
1:
1<
1>
13
1(
#50000
1!
15
0)
#60000
1"
0!
16
05
1)
1;
1=
0<
#70000
1!
15
0)
0>
03
0(
#80000
1$
0#
0"
0!
11
07
06
05
1)
0:
1>
0=
1<
13
1(
#90000
1!
15
0)
#100000
1"
0!
16
05
1)
1:
1=
0<
#110000
1!
15
0)
0>
03
0(
#120000
1#
0"
0!
17
06
05
1)
0;
1>
0=
1<
13
1(
#130000
1!
15
0)
#140000
1"
0!
16
05
1)
#150000
1!
15
0)
#160000
1%
0$
0#
0"
0!
10
01
07
06
05
1)
0:
0<
0>
03
0(
#170000
1!
15
0)
#180000
1"
0!
16
05
1)
#190000
1!
15
0)
#200000
1#
0"
0!
17
06
05
1)
1:
1<
1>
13
1(
#210000
1!
15
0)
#220000
1"
0!
16
05
1)
1;
1=
0>
03
0(
#230000
1!
15
0)
18
1>
13
1(
#240000
1$
0#
0"
0!
11
07
06
05
1)
0:
08
0>
0<
03
0(
1>
13
1(
#250000
1!
15
0)
0>
03
0(
#260000
1"
0!
16
05
1)
1:
1>
1<
13
1(
0>
03
0(
#270000
1!
15
0)
1>
13
1(
#280000
1#
0"
0!
17
06
05
1)
0;
0>
0=
03
0(
1>
13
1(
#290000
1!
15
0)
#300000
1"
0!
16
05
1)
#310000
1!
15
0)
18
#320000
1&
0%
0$
0#
0"
0!
14
00
01
07
06
05
1)
1=
0:
08
19
0=
0<
12
1'
0>
09
03
02
0(
0'
#330000
1!
15
0)
#340000
1"
0!
16
05
1)
1:
1=
1<
#350000
1!
15
0)
1>
13
1(
#360000
1#
0"
0!
17
06
05
1)
0>
03
0(
#370000
1!
15
0)
1>
13
1(
#380000
1"
0!
16
05
1)
0>
03
0(
#390000
1!
15
0)
1>
13
1(
#400000
1$
0#
0"
0!
11
07
06
05
1)
1;
0:
0>
0=
0<
03
0(
#410000
1!
15
0)
#420000
1"
0!
16
05
1)
#430000
1!
15
0)
#440000
1#
0"
0!
17
06
05
1)
1:
1<
1>
13
1(
#450000
1!
15
0)
#460000
1"
0!
16
05
1)
#470000
1!
15
0)
#480000
1%
0$
0#
0"
0!
10
01
07
06
05
1)
1=
0<
0;
0:
0=
1<
#490000
1!
15
0)
#500000
1"
0!
16
05
1)
1:
#510000
1!
15
0)
#520000
1#
0"
0!
17
06
05
1)
#530000
1!
15
0)
#540000
1"
0!
16
05
1)
#550000
1!
15
0)
18
19
12
1'
#560000
1$
0#
0"
0!
11
07
06
05
1)
1;
0:
08
0<
09
02
0'
0>
03
0(
#570000
1!
15
0)
#580000
1"
0!
16
05
1)
#590000
1!
15
0)
#600000
1#
0"
0!
17
06
05
1)
1:
1=
1>
13
1(
#610000
1!
15
0)
0>
03
0(
#620000
1"
0!
16
05
1)
1>
13
1(
#630000
1!
15
0)
18
0>
03
0(
19
12
1'
#640000
0&
0%
0$
0#
0"
0!
04
00
01
07
06
05
1)
0;
0:
08
09
1>
0=
02
13
0'
1(
0>
03
0(
#650000
1!
15
0)
#660000
1"
0!
16
05
1)
#670000
1!
15
0)
#680000
1#
0"
0!
17
06
05
1)
1:
1<
1>
13
1(
#690000
1!
15
0)
#700000
1"
0!
16
05
1)
1;
1=
0<
#710000
1!
15
0)
0>
03
0(
#720000
1$
0#
0"
0!
11
07
06
05
1)
0:
1>
0=
1<
13
1(
#730000
1!
15
0)
#740000
1"
0!
16
05
1)
1:
1=
0<
#750000
1!
15
0)
0>
03
0(
#760000
1#
0"
0!
17
06
05
1)
0;
1>
0=
1<
13
1(
#770000
1!
15
0)
#780000
1"
0!
16
05
1)
#790000
1!
15
0)
#800000
1%
0$
0#
0"
0!
10
01
07
06
05
1)
0:
0<
0>
03
0(
#810000
1!
15
0)
#820000
1"
0!
16
05
1)
#830000
1!
15
0)
#840000
1#
0"
0!
17
06
05
1)
1:
1<
1>
13
1(
#850000
1!
15
0)
#860000
1"
0!
16
05
1)
1;
1=
0>
03
0(
#870000
1!
15
0)
18
1>
13
1(
#880000
1$
0#
0"
0!
11
07
06
05
1)
0:
08
0>
0<
03
0(
1>
13
1(
#890000
1!
15
0)
0>
03
0(
#900000
1"
0!
16
05
1)
1:
1>
1<
13
1(
0>
03
0(
#910000
1!
15
0)
1>
13
1(
#920000
1#
0"
0!
17
06
05
1)
0;
0>
0=
03
0(
1>
13
1(
#930000
1!
15
0)
#940000
1"
0!
16
05
1)
#950000
1!
15
0)
18
#960000
1&
0%
0$
0#
0"
0!
14
00
01
07
06
05
1)
1=
0:
08
19
0=
0<
12
1'
0>
09
03
02
0(
0'
#970000
1!
15
0)
#980000
1"
0!
16
05
1)
1:
1=
1<
#990000
1!
15
0)
1>
13
1(
#1000000
1#
0"
0!
17
06
05
1)
0>
03
0(
#1010000
1!
15
0)
1>
13
1(
#1020000
1"
0!
16
05
1)
0>
03
0(
#1030000
1!
15
0)
1>
13
1(
#1040000
1$
0#
0"
0!
11
07
06
05
1)
1;
0:
0>
0=
0<
03
0(
#1050000
1!
15
0)
#1060000
1"
0!
16
05
1)
#1070000
1!
15
0)
#1080000
1#
0"
0!
17
06
05
1)
1:
1<
1>
13
1(
#1090000
1!
15
0)
#1100000
1"
0!
16
05
1)
#1110000
1!
15
0)
#1120000
1%
0$
0#
0"
0!
10
01
07
06
05
1)
1=
0<
0;
0:
0=
1<
#1130000
1!
15
0)
#1140000
1"
0!
16
05
1)
1:
#1150000
1!
15
0)
#1160000
1#
0"
0!
17
06
05
1)
#1170000
1!
15
0)
#1180000
1"
0!
16
05
1)
#1190000
1!
15
0)
18
19
12
1'
#1200000
1$
0#
0"
0!
11
07
06
05
1)
1;
0:
08
0<
09
02
0'
0>
03
0(
#1210000
1!
15
0)
#1220000
1"
0!
16
05
1)
#1230000
1!
15
0)
#1240000
1#
0"
0!
17
06
05
1)
1:
1=
1>
13
1(
#1250000
1!
15
0)
0>
03
0(
#1260000
1"
0!
16
05
1)
1>
13
1(
#1270000
1!
15
0)
18
0>
03
0(
19
12
1'
#1280000
0&
0%
0$
0#
0"
0!
04
00
01
07
06
05
1)
0;
0:
08
09
1>
0=
02
13
0'
1(
0>
03
0(
#1290000
1!
15
0)
#1300000
1"
0!
16
05
1)
#1310000
1!
15
0)
#1320000
1#
0"
0!
17
06
05
1)
1:
1<
1>
13
1(
#1330000
1!
15
0)
#1340000
1"
0!
16
05
1)
1;
1=
0<
#1350000
1!
15
0)
0>
03
0(
#1360000
1$
0#
0"
0!
11
07
06
05
1)
0:
1>
0=
1<
13
1(
#1370000
1!
15
0)
#1380000
1"
0!
16
05
1)
1:
1=
0<
#1390000
1!
15
0)
0>
03
0(
#1400000
1#
0"
0!
17
06
05
1)
0;
1>
0=
1<
13
1(
#1410000
1!
15
0)
#1420000
1"
0!
16
05
1)
#1430000
1!
15
0)
#1440000
1%
0$
0#
0"
0!
10
01
07
06
05
1)
0:
0<
0>
03
0(
#1450000
1!
15
0)
#1460000
1"
0!
16
05
1)
#1470000
1!
15
0)
#1480000
1#
0"
0!
17
06
05
1)
1:
1<
1>
13
1(
#1490000
1!
15
0)
#1500000
1"
0!
16
05
1)
1;
1=
0>
03
0(
#1510000
1!
15
0)
18
1>
13
1(
#1520000
1$
0#
0"
0!
11
07
06
05
1)
0:
08
0>
0<
03
0(
1>
13
1(
#1530000
1!
15
0)
0>
03
0(
#1540000
1"
0!
16
05
1)
1:
1>
1<
13
1(
0>
03
0(
#1550000
1!
15
0)
1>
13
1(
#1560000
1#
0"
0!
17
06
05
1)
0;
0>
0=
03
0(
1>
13
1(
#1570000
1!
15
0)
#1580000
1"
0!
16
05
1)
#1590000
1!
15
0)
18
#1600000
1&
0%
0$
0#
0"
0!
14
00
01
07
06
05
1)
1=
0:
08
19
0=
0<
12
1'
0>
09
03
02
0(
0'
#1610000
1!
15
0)
#1620000
1"
0!
16
05
1)
1:
1=
1<
#1630000
1!
15
0)
1>
13
1(
#1640000
1#
0"
0!
17
06
05
1)
0>
03
0(
#1650000
1!
15
0)
1>
13
1(
#1660000
1"
0!
16
05
1)
0>
03
0(
#1670000
1!
15
0)
1>
13
1(
#1680000
1$
0#
0"
0!
11
07
06
05
1)
1;
0:
0>
0=
0<
03
0(
#1690000
1!
15
0)
#1700000
1"
0!
16
05
1)
#1710000
1!
15
0)
#1720000
1#
0"
0!
17
06
05
1)
1:
1<
1>
13
1(
#1730000
1!
15
0)
#1740000
1"
0!
16
05
1)
#1750000
1!
15
0)
#1760000
1%
0$
0#
0"
0!
10
01
07
06
05
1)
1=
0<
0;
0:
0=
1<
#1770000
1!
15
0)
#1780000
1"
0!
16
05
1)
1:
#1790000
1!
15
0)
#1800000
1#
0"
0!
17
06
05
1)
#1810000
1!
15
0)
#1820000
1"
0!
16
05
1)
#1830000
1!
15
0)
18
19
12
1'
#1840000
1$
0#
0"
0!
11
07
06
05
1)
1;
0:
08
0<
09
02
0'
0>
03
0(
#1850000
1!
15
0)
#1860000
1"
0!
16
05
1)
#1870000
1!
15
0)
#1880000
1#
0"
0!
17
06
05
1)
1:
1=
1>
13
1(
#1890000
1!
15
0)
0>
03
0(
#1900000
1"
0!
16
05
1)
1>
13
1(
#1910000
1!
15
0)
18
0>
03
0(
19
12
1'
#1920000
0&
0%
0$
0#
0"
0!
04
00
01
07
06
05
1)
0;
0:
08
09
1>
0=
02
13
0'
1(
0>
03
0(
#1930000
1!
15
0)
#1940000
1"
0!
16
05
1)
#1950000
1!
15
0)
#1960000
1#
0"
0!
17
06
05
1)
1:
1<
1>
13
1(
#1970000
1!
15
0)
#1980000
1"
0!
16
05
1)
1;
1=
0<
#1990000
1!
15
0)
0>
03
0(
#2000000
1$
0#
0"
0!
11
07
06
05
1)
0:
1>
0=
1<
13
1(
#2010000
1!
15
0)
#2020000
1"
0!
16
05
1)
1:
1=
0<
#2030000
1!
15
0)
0>
03
0(
#2040000
1#
0"
0!
17
06
05
1)
0;
1>
0=
1<
13
1(
#2050000
1!
15
0)
#2060000
1"
0!
16
05
1)
#2070000
1!
15
0)
#2080000
1%
0$
0#
0"
0!
10
01
07
06
05
1)
0:
0<
0>
03
0(
#2090000
1!
15
0)
#2100000
1"
0!
16
05
1)
#2110000
1!
15
0)
#2120000
1#
0"
0!
17
06
05
1)
1:
1<
1>
13
1(
#2130000
1!
15
0)
#2140000
1"
0!
16
05
1)
1;
1=
0>
03
0(
#2150000
1!
15
0)
18
1>
13
1(
#2160000
1$
0#
0"
0!
11
07
06
05
1)
0:
08
0>
0<
03
0(
1>
13
1(
#2170000
1!
15
0)
0>
03
0(
#2180000
1"
0!
16
05
1)
1:
1>
1<
13
1(
0>
03
0(
#2190000
1!
15
0)
1>
13
1(
#2200000
1#
0"
0!
17
06
05
1)
0;
0>
0=
03
0(
1>
13
1(
#2210000
1!
15
0)
#2220000
1"
0!
16
05
1)
#2230000
1!
15
0)
18
#2240000
1&
0%
0$
0#
0"
0!
14
00
01
07
06
05
1)
1=
0:
08
19
0=
0<
12
1'
0>
09
03
02
0(
0'
#2250000
1!
15
0)
#2260000
1"
0!
16
05
1)
1:
1=
1<
#2270000
1!
15
0)
1>
13
1(
#2280000
1#
0"
0!
17
06
05
1)
0>
03
0(
#2290000
1!
15
0)
1>
13
1(
#2300000
1"
0!
16
05
1)
0>
03
0(
#2310000
1!
15
0)
1>
13
1(
#2320000
1$
0#
0"
0!
11
07
06
05
1)
1;
0:
0>
0=
0<
03
0(
#2330000
1!
15
0)
#2340000
1"
0!
16
05
1)
#2350000
1!
15
0)
#2360000
1#
0"
0!
17
06
05
1)
1:
1<
1>
13
1(
#2370000
1!
15
0)
#2380000
1"
0!
16
05
1)
#2390000
1!
15
0)
#2400000
1%
0$
0#
0"
0!
10
01
07
06
05
1)
1=
0<
0;
0:
0=
1<
#2410000
1!
15
0)
#2420000
1"
0!
16
05
1)
1:
#2430000
1!
15
0)
#2440000
1#
0"
0!
17
06
05
1)
#2450000
1!
15
0)
#2460000
1"
0!
16
05
1)
#2470000
1!
15
0)
18
19
12
1'
#2480000
1$
0#
0"
0!
11
07
06
05
1)
1;
0:
08
0<
09
02
0'
0>
03
0(
#2490000
1!
15
0)
#2500000
1"
0!
16
05
1)
#2510000
1!
15
0)
#2520000
1#
0"
0!
17
06
05
1)
1:
1=
1>
13
1(
#2530000
1!
15
0)
0>
03
0(
#2540000
1"
0!
16
05
1)
1>
13
1(
#2550000
1!
15
0)
18
0>
03
0(
19
12
1'
#2560000
0&
0%
0$
0#
0"
0!
04
00
01
07
06
05
1)
0;
0:
08
09
1>
0=
02
13
0'
1(
0>
03
0(
#2570000
1!
15
0)
#2580000
1"
0!
16
05
1)
#2590000
1!
15
0)
#2600000
1#
0"
0!
17
06
05
1)
1:
1<
1>
13
1(
#2610000
1!
15
0)
#2620000
1"
0!
16
05
1)
1;
1=
0<
#2630000
1!
15
0)
0>
03
0(
#2640000
1$
0#
0"
0!
11
07
06
05
1)
0:
1>
0=
1<
13
1(
#2650000
1!
15
0)
#2660000
1"
0!
16
05
1)
1:
1=
0<
#2670000
1!
15
0)
0>
03
0(
#2680000
1#
0"
0!
17
06
05
1)
0;
1>
0=
1<
13
1(
#2690000
1!
15
0)
#2700000
1"
0!
16
05
1)
#2710000
1!
15
0)
#2720000
1%
0$
0#
0"
0!
10
01
07
06
05
1)
0:
0<
0>
03
0(
#2730000
1!
15
0)
#2740000
1"
0!
16
05
1)
#2750000
1!
15
0)
#2760000
1#
0"
0!
17
06
05
1)
1:
1<
1>
13
1(
#2770000
1!
15
0)
#2780000
1"
0!
16
05
1)
1;
1=
0>
03
0(
#2790000
1!
15
0)
18
1>
13
1(
#2800000
1$
0#
0"
0!
11
07
06
05
1)
0:
08
0>
0<
03
0(
1>
13
1(
#2810000
1!
15
0)
0>
03
0(
#2820000
1"
0!
16
05
1)
1:
1>
1<
13
1(
0>
03
0(
#2830000
1!
15
0)
1>
13
1(
#2840000
1#
0"
0!
17
06
05
1)
0;
0>
0=
03
0(
1>
13
1(
#2850000
1!
15
0)
#2860000
1"
0!
16
05
1)
#2870000
1!
15
0)
18
#2880000
1&
0%
0$
0#
0"
0!
14
00
01
07
06
05
1)
1=
0:
08
19
0=
0<
12
1'
0>
09
03
02
0(
0'
#2890000
1!
15
0)
#2900000
1"
0!
16
05
1)
1:
1=
1<
#2910000
1!
15
0)
1>
13
1(
#2920000
1#
0"
0!
17
06
05
1)
0>
03
0(
#2930000
1!
15
0)
1>
13
1(
#2940000
1"
0!
16
05
1)
0>
03
0(
#2950000
1!
15
0)
1>
13
1(
#2960000
1$
0#
0"
0!
11
07
06
05
1)
1;
0:
0>
0=
0<
03
0(
#2970000
1!
15
0)
#2980000
1"
0!
16
05
1)
#2990000
1!
15
0)
#3000000
1#
0"
0!
17
06
05
1)
1:
1<
1>
13
1(
#3010000
1!
15
0)
#3020000
1"
0!
16
05
1)
#3030000
1!
15
0)
#3040000
1%
0$
0#
0"
0!
10
01
07
06
05
1)
1=
0<
0;
0:
0=
1<
#3050000
1!
15
0)
#3060000
1"
0!
16
05
1)
1:
#3070000
1!
15
0)
#3080000
1#
0"
0!
17
06
05
1)
#3090000
1!
15
0)
#3100000
1"
0!
16
05
1)
#3110000
1!
15
0)
18
19
12
1'
#3120000
1$
0#
0"
0!
11
07
06
05
1)
1;
0:
08
0<
09
02
0'
0>
03
0(
#3130000
1!
15
0)
#3140000
1"
0!
16
05
1)
#3150000
1!
15
0)
#3160000
1#
0"
0!
17
06
05
1)
1:
1=
1>
13
1(
#3170000
1!
15
0)
0>
03
0(
#3180000
1"
0!
16
05
1)
1>
13
1(
#3190000
1!
15
0)
18
0>
03
0(
19
12
1'
#3200000
0&
0%
0$
0#
0"
0!
04
00
01
07
06
05
1)
0;
0:
08
09
1>
0=
02
13
0'
1(
0>
03
0(
#3210000
1!
15
0)
#3220000
1"
0!
16
05
1)
#3230000
1!
15
0)
#3240000
1#
0"
0!
17
06
05
1)
1:
1<
1>
13
1(
#3250000
1!
15
0)
#3260000
1"
0!
16
05
1)
1;
1=
0<
#3270000
1!
15
0)
0>
03
0(
#3280000
1$
0#
0"
0!
11
07
06
05
1)
0:
1>
0=
1<
13
1(
#3290000
1!
15
0)
#3300000
1"
0!
16
05
1)
1:
1=
0<
#3310000
1!
15
0)
0>
03
0(
#3320000
1#
0"
0!
17
06
05
1)
0;
1>
0=
1<
13
1(
#3330000
1!
15
0)
#3340000
1"
0!
16
05
1)
#3350000
1!
15
0)
#3360000
1%
0$
0#
0"
0!
10
01
07
06
05
1)
0:
0<
0>
03
0(
#3370000
1!
15
0)
#3380000
1"
0!
16
05
1)
#3390000
1!
15
0)
#3400000
1#
0"
0!
17
06
05
1)
1:
1<
1>
13
1(
#3410000
1!
15
0)
#3420000
1"
0!
16
05
1)
1;
1=
0>
03
0(
#3430000
1!
15
0)
18
1>
13
1(
#3440000
1$
0#
0"
0!
11
07
06
05
1)
0:
08
0>
0<
03
0(
1>
13
1(
#3450000
1!
15
0)
0>
03
0(
#3460000
1"
0!
16
05
1)
1:
1>
1<
13
1(
0>
03
0(
#3470000
1!
15
0)
1>
13
1(
#3480000
1#
0"
0!
17
06
05
1)
0;
0>
0=
03
0(
1>
13
1(
#3490000
1!
15
0)
#3500000
1"
0!
16
05
1)
#3510000
1!
15
0)
18
#3520000
1&
0%
0$
0#
0"
0!
14
00
01
07
06
05
1)
1=
0:
08
19
0=
0<
12
1'
0>
09
03
02
0(
0'
#3530000
1!
15
0)
#3540000
1"
0!
16
05
1)
1:
1=
1<
#3550000
1!
15
0)
1>
13
1(
#3560000
1#
0"
0!
17
06
05
1)
0>
03
0(
#3570000
1!
15
0)
1>
13
1(
#3580000
1"
0!
16
05
1)
0>
03
0(
#3590000
1!
15
0)
1>
13
1(
#3600000
1$
0#
0"
0!
11
07
06
05
1)
1;
0:
0>
0=
0<
03
0(
#3610000
1!
15
0)
#3620000
1"
0!
16
05
1)
#3630000
1!
15
0)
#3640000
1#
0"
0!
17
06
05
1)
1:
1<
1>
13
1(
#3650000
1!
15
0)
#3660000
1"
0!
16
05
1)
#3670000
1!
15
0)
#3680000
1%
0$
0#
0"
0!
10
01
07
06
05
1)
1=
0<
0;
0:
0=
1<
#3690000
1!
15
0)
#3700000
1"
0!
16
05
1)
1:
#3710000
1!
15
0)
#3720000
1#
0"
0!
17
06
05
1)
#3730000
1!
15
0)
#3740000
1"
0!
16
05
1)
#3750000
1!
15
0)
18
19
12
1'
#3760000
1$
0#
0"
0!
11
07
06
05
1)
1;
0:
08
0<
09
02
0'
0>
03
0(
#3770000
1!
15
0)
#3780000
1"
0!
16
05
1)
#3790000
1!
15
0)
#3800000
1#
0"
0!
17
06
05
1)
1:
1=
1>
13
1(
#3810000
1!
15
0)
0>
03
0(
#3820000
1"
0!
16
05
1)
1>
13
1(
#3830000
1!
15
0)
18
0>
03
0(
19
12
1'
#3840000
0&
0%
0$
0#
0"
0!
04
00
01
07
06
05
1)
0;
0:
08
09
1>
0=
02
13
0'
1(
0>
03
0(
#3850000
1!
15
0)
#3860000
1"
0!
16
05
1)
#3870000
1!
15
0)
#3880000
1#
0"
0!
17
06
05
1)
1:
1<
1>
13
1(
#3890000
1!
15
0)
#3900000
1"
0!
16
05
1)
1;
1=
0<
#3910000
1!
15
0)
0>
03
0(
#3920000
1$
0#
0"
0!
11
07
06
05
1)
0:
1>
0=
1<
13
1(
#3930000
1!
15
0)
#3940000
1"
0!
16
05
1)
1:
1=
0<
#3950000
1!
15
0)
0>
03
0(
#3960000
1#
0"
0!
17
06
05
1)
0;
1>
0=
1<
13
1(
#3970000
1!
15
0)
#3980000
1"
0!
16
05
1)
#3990000
1!
15
0)
